
package org.fleury.agendamentoPOC.solver;
    dialect "java"

import org.optaplanner.core.api.score.buildin.hardsoft.HardSoftScoreHolder;
import org.fleury.schedulingPOC.domain.BuildingEntity;
import org.fleury.schedulingPOC.domain.CustomerEntity;
import org.fleury.schedulingPOC.domain.CustomerAssignmentEntity;

global HardSoftScoreHolder scoreHolder;

// ############################################################################
// Hard constraints
// ############################################################################


rule "sameSexRule"
    when
        not CustomerAssignmentEntity(buildingSex == customerSex)
    then
        scoreHolder.addHardConstraintMatch(kcontext, -100);
end

rule "sameRegionRule"
    when
        not CustomerAssignmentEntity(buildingRegion == customerRegion)
    then
        scoreHolder.addHardConstraintMatch(kcontext, -10);
end

rule "maxHeightRule"
    when
        CustomerAssignmentEntity(buildingMaxHeight > customerHeight)
    then
        scoreHolder.addHardConstraintMatch(kcontext, -1);
end
